%YAML 1.1
%TAG !u! tag:unity3d.com,2011:
--- !u!114 &11400000
MonoBehaviour:
  m_ObjectHideFlags: 0
  m_CorrespondingSourceObject: {fileID: 0}
  m_PrefabInternal: {fileID: 0}
  m_GameObject: {fileID: 0}
  m_Enabled: 1
  m_EditorHideFlags: 0
  m_Script: {fileID: 11500000, guid: c0532349288945f459cfa4b074e97419, type: 3}
  m_Name: WaveData1
  m_EditorClassIdentifier: 
  enemyPrefab: {fileID: 1687249621110204, guid: f2d322352005d7949b0f4776bd0a0050,
    type: 2}
  paths: {fileID: 1725934530845328, guid: 3c7bba0220b0f1b41bedfacdd0e53449, type: 2}
  timeBetweenSpawns: 0.5
  spawnRandomFactor: 0.3
  numberOfEnemies: 5
  moveSpeed: 3
